"CPF";"VALOR";"VENCIMENTO"
"363.219.270-74";"294,20";"21/12/2018"
"438.886.120-04";"194,22";"21/12/2018"
"279.166.780-63";"230,41";"15/12/2018"
"095.571.050-20";"223,20";"15/12/2018"
"740.842.680-97";"221,20";"10/12/2018"
"104.163.440-46";"210,20";"10/12/2018"
"735.361.960-04";"294,20";"05/12/2018"
"222.222.222-22";"100,20O";"05/12/2018"
"111.111.111-11&";"294,20";"01/12/2018"
"000.000.000-00";"294,20";"01/12/2018"
"939.999.999-99";"294,20";"21/11/2018"
"858.888.888-88";"194,22";"21/11/2018"
"737.777.777-77";"230,41";"21/11/2018"
"626.666.666-66";"223,20";"21/11/2018"
"535.555.555-55";"221,20";"01/11/2018"
"434.444.444-44";"210,20";"01/11/2018"
"323.333.333-33";"294,20Z";"15/11/2018"
"282.222.222-22";"100,20";"15/11/2018"
"161.111.111-11";"294,20";"10/11/2018"
"050.000.000-00";"294,20";"10/11/2018"

